CM_comb
…
gseaResDat <- gseaRes@result

as_tibble(gseaRes) %>% 
  arrange(desc(abs(NES))) %>% 
  top_n(20, wt=-p.adjust) %>% 
  dplyr::select(-core_enrichment) %>%
  mutate(across(c("enrichmentScore", "NES"), round, digits=3)) %>% 
  mutate(across(c("pvalue", "p.adjust", "qvalue"), scales::scientific))

# A tibble: 21 × 10
   ID            Description setSize enrichmentScore   NES pvalue p.adjust qvalue  rank leading_edge
   <chr>         <chr>         <int>           <dbl> <dbl> <chr>  <chr>    <chr>  <dbl> <chr>       
 1 HALLMARK_TGF… Genes up-r…      53           0.912  2.35 5.04e… 2.52e-04 2.52e…   369 tags=25%, l…
 2 HALLMARK_TNF… Genes regu…     178           0.499  1.48 6.30e… 4.99e-01 4.99e…  1290 tags=17%, l…
 3 HALLMARK_KRA… Genes up-r…     159           0.503  1.47 7.24e… 4.99e-01 4.99e…  1518 tags=11%, l…
 4 HALLMARK_APO… Genes medi…     147           0.507  1.46 8.08e… 4.99e-01 4.99e…  1290 tags=12%, l…
 5 HALLMARK_WNT… Genes up-r…      38           0.585  1.46 9.98e… 4.99e-01 4.99e…   702 tags=13%, l…
 6 HALLMARK_HED… Genes up-r…      34          -0.556 -1.44 6.94e… 4.99e-01 4.99e…  2133 tags=26%, l…
 7 HALLMARK_EST… Genes defi…     165           0.486  1.42 8.61e… 4.99e-01 4.99e…  1257 tags=14%, l…
 8 HALLMARK_MYO… Genes invo…     181           0.455  1.35 1.20e… 5.03e-01 5.03e…  1080 tags=17%, l…
 9 HALLMARK_COA… Genes enco…      97           0.462  1.28 1.60e… 5.80e-01 5.80e…  1705 tags=19%, l…
10 HALLMARK_HEM… Genes invo…     176           0.429  1.27 1.70e… 5.80e-01 5.80e…  2076 tags=18%, l…
# ℹ 11 more rows
…
